{
    "AppSyncApiName": "ritz",
    "DynamoDBBillingMode": "PAY_PER_REQUEST",
    "DynamoDBEnableServerSideEncryption": "false",
    "AuthCognitoUserPoolId": {
        "Fn::GetAtt": [
            "authritz187055d3",
            "Outputs.UserPoolId"
        ]
    }
}